// Jest Snapshot v1, https://goo.gl/fbAQLP

exports[`renders ProductItem component 1`] = `
<a
  className="product"
  href="/product/11081"
  onClick={[Function]}
>
  <header
    className="product__header"
  >
    <h3
      className="product__name"
    >
      Fostex TH610
    </h3>
    <div
      className="product__artNum"
    >
      11081
    </div>
  </header>
  <div
    className="product__body"
  >
    <div
      className="product__img"
    >
      <img
        alt="Fostex TH610"
        src="https://era-in-ear.com/wp-content/uploads/shop/products/origin/4c74d51dfd633243b38d6c5435b4d9bd-1024x1024.jpg"
      />
    </div>
    <div
      className="product__descr"
    >
      <div
        className="product__color"
      >
        Колір: 
        brown
      </div>
      <div
        className="product__price"
      >
        21280
        <span
          className="product__priceSign"
        >
          грн
        </span>
      </div>
      <div
        className="product__btns"
      >
        <button
          className="product__favBtn"
          onClick={[Function]}
          type="button"
        >
          <svg
            height={32}
            viewBox="0 0 47.94 47.94"
            width={32}
          >
            <path
              d="M26.285,2.486l5.407,10.956c0.376,0.762,1.103,1.29,1.944,1.412l12.091,1.757
 c2.118,0.308,2.963,2.91,1.431,4.403l-8.749,8.528c-0.608,0.593-0.886,1.448-0.742,2.285l2.065,12.042
 c0.362,2.109-1.852,3.717-3.746,2.722l-10.814-5.685c-0.752-0.395-1.651-0.395-2.403,0l-10.814,5.685
 c-1.894,0.996-4.108-0.613-3.746-2.722l2.065-12.042c0.144-0.837-0.134-1.692-0.742-2.285l-8.749-8.528
 c-1.532-1.494-0.687-4.096,1.431-4.403l12.091-1.757c0.841-0.122,1.568-0.65,1.944-1.412l5.407-10.956
 C22.602,0.567,25.338,0.567,26.285,2.486z"
              fill="#a1bf36"
            />
          </svg>
        </button>
        <button
          className="product__cartBtn"
          onClick={[Function]}
          type="button"
        >
          Купити
        </button>
      </div>
    </div>
  </div>
</a>
`;

exports[`renders ProductItem component correctly 1`] = `
<a
  className="product"
  href="/product/11081"
  onClick={[Function]}
>
  <header
    className="product__header"
  >
    <h3
      className="product__name"
    >
      Fostex TH610
    </h3>
    <div
      className="product__artNum"
    >
      11081
    </div>
  </header>
  <div
    className="product__body"
  >
    <div
      className="product__img"
    >
      <img
        alt="Fostex TH610"
        src="https://era-in-ear.com/wp-content/uploads/shop/products/origin/4c74d51dfd633243b38d6c5435b4d9bd-1024x1024.jpg"
      />
    </div>
    <div
      className="product__descr"
    >
      <div
        className="product__color"
      >
        Колір: 
        brown
      </div>
      <div
        className="product__price"
      >
        21280
        <span
          className="product__priceSign"
        >
          грн
        </span>
      </div>
      <div
        className="product__btns"
      >
        <button
          className="product__favBtn"
          onClick={[Function]}
          type="button"
        >
          <svg
            height={32}
            viewBox="0 0 47.94 47.94"
            width={32}
          >
            <path
              d="M26.285,2.486l5.407,10.956c0.376,0.762,1.103,1.29,1.944,1.412l12.091,1.757
 c2.118,0.308,2.963,2.91,1.431,4.403l-8.749,8.528c-0.608,0.593-0.886,1.448-0.742,2.285l2.065,12.042
 c0.362,2.109-1.852,3.717-3.746,2.722l-10.814-5.685c-0.752-0.395-1.651-0.395-2.403,0l-10.814,5.685
 c-1.894,0.996-4.108-0.613-3.746-2.722l2.065-12.042c0.144-0.837-0.134-1.692-0.742-2.285l-8.749-8.528
 c-1.532-1.494-0.687-4.096,1.431-4.403l12.091-1.757c0.841-0.122,1.568-0.65,1.944-1.412l5.407-10.956
 C22.602,0.567,25.338,0.567,26.285,2.486z"
              fill="#a1bf36"
            />
          </svg>
        </button>
        <button
          className="product__cartBtn"
          onClick={[Function]}
          type="button"
        >
          Купити
        </button>
      </div>
    </div>
  </div>
</a>
`;

exports[`snapshot ProductItem component 1`] = `
<a
  className="product"
  href="/product/11081"
  onClick={[Function]}
>
  <header
    className="product__header"
  >
    <h3
      className="product__name"
    >
      Fostex TH610
    </h3>
    <div
      className="product__artNum"
    >
      11081
    </div>
  </header>
  <div
    className="product__body"
  >
    <div
      className="product__img"
    >
      <img
        alt="Fostex TH610"
        src="https://era-in-ear.com/wp-content/uploads/shop/products/origin/4c74d51dfd633243b38d6c5435b4d9bd-1024x1024.jpg"
      />
    </div>
    <div
      className="product__descr"
    >
      <div
        className="product__color"
      >
        Колір: 
        brown
      </div>
      <div
        className="product__price"
      >
        21280
        <span
          className="product__priceSign"
        >
          грн
        </span>
      </div>
      <div
        className="product__btns"
      >
        <button
          className="product__favBtn"
          onClick={[Function]}
          type="button"
        >
          <svg
            height={32}
            viewBox="0 0 47.94 47.94"
            width={32}
          >
            <path
              d="M26.285,2.486l5.407,10.956c0.376,0.762,1.103,1.29,1.944,1.412l12.091,1.757
 c2.118,0.308,2.963,2.91,1.431,4.403l-8.749,8.528c-0.608,0.593-0.886,1.448-0.742,2.285l2.065,12.042
 c0.362,2.109-1.852,3.717-3.746,2.722l-10.814-5.685c-0.752-0.395-1.651-0.395-2.403,0l-10.814,5.685
 c-1.894,0.996-4.108-0.613-3.746-2.722l2.065-12.042c0.144-0.837-0.134-1.692-0.742-2.285l-8.749-8.528
 c-1.532-1.494-0.687-4.096,1.431-4.403l12.091-1.757c0.841-0.122,1.568-0.65,1.944-1.412l5.407-10.956
 C22.602,0.567,25.338,0.567,26.285,2.486z"
              fill="#a1bf36"
            />
          </svg>
        </button>
        <button
          className="product__cartBtn"
          onClick={[Function]}
          type="button"
        >
          Купити
        </button>
      </div>
    </div>
  </div>
</a>
`;
